{
  "type": "service_account",
  "project_id": "bitrise-b5f05",
  "private_key_id": "e8d0c2473690af748a368b3bbc9dee4d3fa61247",
  "private_key": "-----BEGIN PRIVATE KEY-----\nMIIEvwIBADANBgkqhkiG9w0BAQEFAASCBKkwggSlAgEAAoIBAQCe12qWAO6e1nP3\nk3ws8L+VeXER0c6jzqT+C9ghzvH2K5Is+uabvaL/FfCexUx4C2lnl0qXpzUOJE0m\nMwoxjd1HzHHycX93WP46vrnXrLniZ4QJknRPKvcxhv94JzkjaHZsI9/XnKTGfDUb\naWorgDfcq2qqUUc78HwpjhCUly9ZSSDailNafhyPBZMVLrNAKYsGPQIugF+e8Sfq\nQrCJ9XS8nxothob5ZiSlFHUjhTaFrFje0yoKumbnxi9z9FSRVzly6aMbtAZQBkfQ\nLAup2LMlxleXa0+3WBte4uIvqg7RUxVtm+jObB/Ebrh/Edk94czHKNQidyZEeUDH\n36PlhNIrAgMBAAECggEAP8c6Flnwdhmgvb9b5EWUf4WgF2oZYR+HkzQZR9XqxI/R\nJTtnHhCiYm8iSvXokujuHTibrFHolTGRQq3KwYP3Xi1icVkON9MlXVwYjddeWeB7\nnUZPajxTvfC5IjsJj8SRjDFJXy8X4FSeFFAa37WfeHzhmtqA0jno+NyAntEno179\n5GbOQNuYUfbHtkXSiLC2p84ewsS81wzeA9P2u8IT0/pG0dLMGWedGfW/mbhkdZUZ\nwpdwWm+6/SemSpX+cEov+vt71O2c8BdyQYETNcRZMJyrmxw/oYzIVkKYkSoa1Ew7\ndiOueBgY078IQ9E+ZvILCkVHfpqnfjHEeI6xlwC4eQKBgQDU0NArv8twEOq7r4Hv\n2TjnvhDhGm6DSvKLU4BK564QF7Xp9b4y95sI1h1mmKku/m/uQWDxD8RTlANueeLp\nEQYc53jfsLNlBgbJEhLll9sI6lK3yjEME0NoKz4YlDngqnyDyrlkbQZkqgln2Eev\naqMgoiZ0B5TlC0DTqwFdKoUmGQKBgQC/EsrMcmYyTqX7MU0f4ELsOxDArNYHi0eM\n4CG5yvSaXAOvkonRjk83Zw6Bt9lResI2t3LOjBDFavT7gsKVwQ3DdFrrfE4ao9xw\npEGVQjHlx9b9H8ypLdPDdmQ062KZcXM6mMpHDeguR7KhyximjVijTF9ZDtBuZ27Z\nv1yFc/Ga4wKBgQC/OK2EUf6zQJAaerYPVKi8Gl1CVqSsVkCfjjT9mTUfAp8TjRsM\n4s0sYG/kixGhxz+93oMDt74ZtypqLx0DfKd4e0hx/m0DPioEq7fNEujeFuaifAwc\nJIbx58ERBscGp0nghdyVbx1KgDqZU43+AZx4KxrQMSvJrpXeW46LLzSaqQKBgQCi\nG513S2+tKtDjhvZ6Hthod8xEy95iVCaGPPogGTLha0OtR9QpuGU5CfRi1cpIuK/h\noE6FMoxgEdh7MntIdpvoweUJeVMCgxdZceI6cgjHfH7IDpyixECvythFlZb3vCsZ\nAdxL4F6mNSo23oqxc6ZKFVenxUvM/3AqyZIDn1TSJQKBgQCJOHSy39Uz6e4zOU0j\ntEDhvutW7THqgqqY/atzrqk3Lser+kyaKlXY4Ucq+RyGWFRt0iS6XxhDFsIp4/KA\n0QMU6EBAkK3P5+znppkFnKXyFpx4PQiKWz835zhe9bgmsW9GXRFDFNhdwahkaotB\nGnE/cMuU/z3XciELosQYr85/lA==\n-----END PRIVATE KEY-----\n",
  "client_email": "firebase-adminsdk-6vd1w@bitrise-b5f05.iam.gserviceaccount.com",
  "client_id": "105819422035159545938",
  "auth_uri": "https://accounts.google.com/o/oauth2/auth",
  "token_uri": "https://oauth2.googleapis.com/token",
  "auth_provider_x509_cert_url": "https://www.googleapis.com/oauth2/v1/certs",
  "client_x509_cert_url": "https://www.googleapis.com/robot/v1/metadata/x509/firebase-adminsdk-6vd1w%40bitrise-b5f05.iam.gserviceaccount.com"
}
